…
Our data objects are a data frame of sample info, `farmm_samples`, and a
matrix of Bray-Curtis distances between samples, `farmm_bc`. The
Bray-Curtis distances are derived from differences in the abundance of
the taxa that comprise the fecal microbiome. We have one distance for
each pair of samples. Let’s look at the data frame of samples.

``` r
farmm_samples
```

    ## # A tibble: 414 × 11
    ##    sample_id     subject_id study_day diet     antibiotics height weight   age
    ##    <chr>              <dbl>     <int> <fct>    <fct>        <dbl>  <dbl> <dbl>
    ##  1 farmm.9005.00       9005         0 Omnivore pre            180     70    24
    ##  2 farmm.9005.02       9005         2 Omnivore pre            180     70    24
    ##  3 farmm.9005.03       9005         3 Omnivore pre            180     70    24
    ##  4 farmm.9005.04       9005         4 Omnivore pre            180     70    24
    ##  5 farmm.9005.06       9005         6 Omnivore current        180     70    24
    ##  6 farmm.9005.07       9005         7 Omnivore current        180     70    24
    ##  7 farmm.9005.08       9005         8 Omnivore current        180     70    24
    ##  8 farmm.9005.09       9005         9 Omnivore post           180     70    24
    ##  9 farmm.9005.10       9005        10 Omnivore post           180     70    24
    ## 10 farmm.9005.11       9005        11 Omnivore post           180     70    24
    ## # ℹ 404 more rows
    ## # ℹ 3 more variables: bacterial_16S_copies <dbl>, num_reads <dbl>,
    ## #   host_frac <dbl>
…
``` r
farmm_final %>%
  pcoaplus(distmat = farmm_bc, sample_id_var = sample_id)
```

    ## # A tibble: 30 × 13
    ##    sample_id  Axis.1 Axis.2 subject_id study_day diet  antibiotics height weight
    ##    <chr>       <dbl>  <dbl>      <dbl>     <int> <fct> <fct>        <dbl>  <dbl>
    ##  1 farmm.90… -0.251  -0.271       9005        15 Omni… post          180    70  
    ##  2 farmm.90…  0.0656  0.203       9006        15 Omni… post          176    87.3
    ##  3 farmm.90… -0.255  -0.146       9010        15 Omni… post          171.   63.4
    ##  4 farmm.90… -0.167  -0.218       9015        15 Omni… post          173    61.3
    ##  5 farmm.90… -0.309  -0.209       9019        15 Omni… post          174.   66.3
    ##  6 farmm.90… -0.0329  0.349       9030        15 Omni… post          180.   90  
    ##  7 farmm.90… -0.0226  0.115       9033        15 Omni… post          170.   78.6
    ##  8 farmm.90…  0.0233  0.439       9036        15 Omni… post          178    75.8
    ##  9 farmm.90… -0.131   0.186       9037        15 Omni… post          176    71.3
    ## 10 farmm.90… -0.147   0.180       9040        15 Omni… post          173    71  
    ## # ℹ 20 more rows
    ## # ℹ 4 more variables: age <dbl>, bacterial_16S_copies <dbl>, num_reads <dbl>,
    ## #   host_frac <dbl>
…
